ed1_proyecto/uP_tb.vcd
$date
	Sun Nov 22 23:18:40 2020
$end
$version
	Icarus Verilog
$end
$timescale
	1ps
$end
$scope module testbench $end
$var wire 4 ! data_bus [3:0] $end
$var wire 1 " z_flag $end
$var wire 8 # program_byte [7:0] $end
$var wire 1 $ phase $end
$var wire 4 % oprnd [3:0] $end
$var wire 4 & instr [3:0] $end
$var wire 1 ' c_flag $end
$var wire 12 ( address_RAM [11:0] $end
$var wire 4 ) accu [3:0] $end
$var wire 12 * PC [11:0] $end
$var wire 4 + FF_out [3:0] $end
$var reg 1 , clock $end
$var reg 4 - pushbuttons [3:0] $end
$var reg 1 . reset $end
$var integer 32 / immediateDelay [31:0] $end
$var integer 32 0 jumpDelay [31:0] $end
$var integer 32 1 memoryDelay [31:0] $end
$var integer 32 2 nota [31:0] $end
$scope module uPmodule $end
$var wire 1 , clock $end
$var wire 4 3 data_bus [3:0] $end
$var wire 4 4 pushbuttons [3:0] $end
$var wire 1 . reset $end
$var wire 1 5 zero $end
$var wire 1 " z_flag $end
$var wire 1 6 weRAM $end
$var wire 8 7 program_byte [7:0] $end
$var wire 1 $ phase $end
$var wire 4 8 oprnd [3:0] $end
$var wire 1 9 oeOprnd $end
$var wire 1 : oeIN $end
$var wire 1 ; oeALU $end
$var wire 1 < loadPC $end
$var wire 1 = loadOut $end
$var wire 1 > loadFlags $end
$var wire 1 ? loadA $end
$var wire 4 @ instr [3:0] $end
$var wire 1 A incPC $end
$var wire 3 B fun [2:0] $end
$var wire 1 C csRAM $end
$var wire 1 D carry $end
$var wire 1 ' c_flag $end
$var wire 4 E alu [3:0] $end
$var wire 12 F address_RAM [11:0] $end
$var wire 4 G accu [3:0] $end
$var wire 12 H PC [11:0] $end
$var wire 4 I FF_out [3:0] $end
$scope module Inputs $end
$var wire 4 J A [3:0] $end
$var wire 4 K Y [3:0] $end
$var wire 1 : enabled $end
$upscope $end
$scope module Phase $end
$var wire 1 , clk $end
$var wire 1 . reset $end
$var wire 1 $ Q $end
$scope module U1 $end
$var wire 1 L D $end
$var wire 1 , clk $end
$var wire 1 . reset $end
$var reg 1 $ Q $end
$upscope $end
$upscope $end
$scope module U1 $end
$var wire 1 , clk $end
$var wire 1 . reset $end
$var wire 1 < load $end
$var wire 1 A enable $end
$var wire 12 M D [11:0] $end
$var reg 12 N Q [11:0] $end
$upscope $end
$scope module U2 $end
$var wire 12 O direccion [11:0] $end
$var wire 8 P salida [7:0] $end
$upscope $end
$scope module U3 $end
$var wire 8 Q D [7:0] $end
$var wire 1 , clk $end
$var wire 1 R enable $end
$var wire 1 . reset $end
$var wire 4 S operando [3:0] $end
$var wire 4 T instruccion [3:0] $end
$scope module U1 $end
$var wire 1 U D $end
$var wire 1 , clk $end
$var wire 1 R enable $end
$var wire 1 . reset $end
$var reg 1 V Q $end
$upscope $end
$scope module U2 $end
$var wire 1 W D $end
$var wire 1 , clk $end
$var wire 1 R enable $end
$var wire 1 . reset $end
$var reg 1 X Q $end
$upscope $end
$scope module U3 $end
$var wire 1 Y D $end
$var wire 1 , clk $end
$var wire 1 R enable $end
$var wire 1 . reset $end
$var reg 1 Z Q $end
$upscope $end
$scope module U4 $end
$var wire 1 [ D $end
$var wire 1 , clk $end
$var wire 1 R enable $end
$var wire 1 . reset $end
$var reg 1 \ Q $end
$upscope $end
$scope module U5 $end
$var wire 1 ] D $end
$var wire 1 , clk $end
$var wire 1 R enable $end
$var wire 1 . reset $end
$var reg 1 ^ Q $end
$upscope $end
$scope module U6 $end
$var wire 1 _ D $end
$var wire 1 , clk $end
$var wire 1 R enable $end
$var wire 1 . reset $end
$var reg 1 ` Q $end
$upscope $end
$scope module U7 $end
$var wire 1 a D $end
$var wire 1 , clk $end
$var wire 1 R enable $end
$var wire 1 . reset $end
$var reg 1 b Q $end
$upscope $end
$scope module U8 $end
$var wire 1 c D $end
$var wire 1 , clk $end
$var wire 1 R enable $end
$var wire 1 . reset $end
$var reg 1 d Q $end
$upscope $end
$upscope $end
$scope module U4 $end
$var wire 4 e data [3:0] $end
$var wire 4 f oprnd [3:0] $end
$var wire 8 g program_byte [7:0] $end
$var wire 1 6 enableRW $end
$var wire 1 C chips $end
$var wire 12 h address [11:0] $end
$var reg 4 i data_out [3:0] $end
$upscope $end
$scope module U5 $end
$var wire 4 j D [3:0] $end
$var wire 1 , clk $end
$var wire 1 . reset $end
$var wire 1 = enable $end
$var wire 4 k Q [3:0] $end
$scope module U1 $end
$var wire 1 l D $end
$var wire 1 , clk $end
$var wire 1 . reset $end
$var wire 1 = enable $end
$var reg 1 m Q $end
$upscope $end
$scope module U2 $end
$var wire 1 n D $end
$var wire 1 , clk $end
$var wire 1 . reset $end
$var wire 1 = enable $end
$var reg 1 o Q $end
$upscope $end
$scope module U3 $end
$var wire 1 p D $end
$var wire 1 , clk $end
$var wire 1 . reset $end
$var wire 1 = enable $end
$var reg 1 q Q $end
$upscope $end
$scope module U4 $end
$var wire 1 r D $end
$var wire 1 , clk $end
$var wire 1 . reset $end
$var wire 1 = enable $end
$var reg 1 s Q $end
$upscope $end
$upscope $end
$scope module U6 $end
$var wire 4 t instr [3:0] $end
$var wire 1 $ phase $end
$var wire 1 " z_flag $end
$var wire 1 6 weRAM $end
$var wire 1 9 oeOprnd $end
$var wire 1 : oeIN $end
$var wire 1 ; oeALU $end
$var wire 1 < loadPC $end
$var wire 1 = loadOut $end
$var wire 1 > loadFlags $end
$var wire 1 ? loadA $end
$var wire 1 A incPC $end
$var wire 3 u fun [2:0] $end
$var wire 1 C csRAM $end
$var wire 1 ' c_flag $end
$var wire 7 v address [6:0] $end
$var reg 13 w signalsReg [12:0] $end
$upscope $end
$scope module U7 $end
$var wire 4 x B [3:0] $end
$var wire 3 y F [2:0] $end
$var wire 1 5 Z $end
$var wire 4 z S [3:0] $end
$var wire 1 D C $end
$var wire 4 { A [3:0] $end
$var reg 5 | regS [4:0] $end
$upscope $end
$scope module U8 $end
$var wire 4 } D [3:0] $end
$var wire 1 , clk $end
$var wire 1 ? enable $end
$var wire 1 . reset $end
$var wire 4 ~ Q [3:0] $end
$scope module U1 $end
$var wire 1 !" D $end
$var wire 1 , clk $end
$var wire 1 ? enable $end
$var wire 1 . reset $end
$var reg 1 "" Q $end
$upscope $end
$scope module U2 $end
$var wire 1 #" D $end
$var wire 1 , clk $end
$var wire 1 ? enable $end
$var wire 1 . reset $end
$var reg 1 $" Q $end
$upscope $end
$scope module U3 $end
$var wire 1 %" D $end
$var wire 1 , clk $end
$var wire 1 ? enable $end
$var wire 1 . reset $end
$var reg 1 &" Q $end
$upscope $end
$scope module U4 $end
$var wire 1 '" D $end
$var wire 1 , clk $end
$var wire 1 ? enable $end
$var wire 1 . reset $end
$var reg 1 (" Q $end
$upscope $end
$upscope $end
$scope module U9 $end
$var wire 1 D carry $end
$var wire 1 , clk $end
$var wire 1 > enable $end
$var wire 1 . reset $end
$var wire 1 5 zero $end
$var wire 1 " z_flag $end
$var wire 1 ' c_flag $end
$scope module U1 $end
$var wire 1 D D $end
$var wire 1 , clk $end
$var wire 1 > enable $end
$var wire 1 . reset $end
$var reg 1 ' Q $end
$upscope $end
$scope module U2 $end
$var wire 1 5 D $end
$var wire 1 , clk $end
$var wire 1 > enable $end
$var wire 1 . reset $end
$var reg 1 " Q $end
$upscope $end
$upscope $end
$scope module bALU $end
$var wire 4 )" A [3:0] $end
$var wire 4 *" Y [3:0] $end
$var wire 1 ; enabled $end
$upscope $end
$scope module bFetch $end
$var wire 4 +" A [3:0] $end
$var wire 4 ," Y [3:0] $end
$var wire 1 9 enabled $end
$upscope $end
$upscope $end
$upscope $end
$enddefinitions $end
#0
$dumpvars
bx ,"
bx +"
bx *"
bx )"
x("
x'"
x&"
x%"
x$"
x#"
x""
x!"
bx ~
bx }
bx |
bx {
bx z
bx y
bx x
bx w
bx v
bx u
bx t
xs
xr
xq
xp
xo
xn
xm
xl
bx k
bx j
bx i
bx h
bx g
bx f
bx e
xd
xc
xb
xa
x`
x_
x^
x]
x\
x[
xZ
xY
xX
xW
xV
xU
bx T
bx S
xR
bx Q
bx P
bx O
bx N
bx M
xL
bx K
b110 J
bx I
bx H
bx G
bx F
bx E
xD
xC
bx B
xA
bx @
x?
x>
x=
x<
x;
x:
x9
bx 8
bx 7
x6
x5
b110 4
bx 3
b0 2
b100010100 1
b1010010000 0
b10000 /
0.
b110 -
0,
bx +
bx *
bx )
bx (
x'
bx &
bx %
x$
bx #
x"
bx !
$end
#2
15
0l
0n
0p
0r
0!"
0#"
0%"
0'"
b0 !
b0 3
b0 K
b0 e
b0 j
b0 x
b0 *"
b0 ,"
b0 E
b0 z
b0 }
b0 )"
0D
b0 |
1A
0<
0?
0>
b0 B
b0 u
b0 y
0C
06
1;
0:
09
0=
b1000000001000 w
0U
1W
0Y
0[
1]
1_
1a
1c
1L
1R
b1001111 #
b1001111 7
b1001111 P
b1001111 Q
b1001111 g
b0 *
b0 H
b0 N
b0 O
0V
0X
0Z
b0 &
b0 @
b0 T
b0 t
0\
0^
0`
0b
b1001111 (
b1001111 F
b1001111 M
b1001111 h
b0 %
b0 8
b0 S
b0 f
b0 +"
0d
0m
0o
0q
b0 +
b0 I
b0 k
0s
0""
0$"
0&"
b0 )
b0 G
b0 {
b0 ~
0("
0$
0'
b0 v
0"
1.
#3
0.
#5
05
1!"
1#"
1%"
1'"
b1111 E
b1111 z
b1111 }
b1111 )"
1l
1n
1p
1r
b1111 |
b1111 !
b1111 3
b1111 K
b1111 e
b1111 j
b1111 x
b1111 *"
b1111 ,"
0A
1?
1>
b10 B
b10 u
b10 y
0;
19
b11010000010 w
0L
0R
1U
1[
1$
1d
1b
1`
b1111 %
b1111 8
b1111 S
b1111 f
b1111 +"
1^
b100001 v
b100 &
b100 @
b100 T
b100 t
1X
b111111011111 (
b111111011111 F
b111111011111 M
b111111011111 h
b11011111 #
b11011111 7
b11011111 P
b11011111 Q
b11011111 g
b1 *
b1 H
b1 N
b1 O
1,
#10
0,
#15
b1111 !
b1111 3
b1111 K
b1111 e
b1111 j
b1111 x
b1111 *"
b1111 ,"
1A
0?
0>
b0 B
b0 u
b0 y
1;
09
b1000000001000 w
1L
1R
1""
1$"
1&"
b1111 )
b1111 G
b1111 {
b1111 ~
1("
b100000 v
0$
1,
#16
b1000110 2
#20
0,
#25
0A
1=
b1001 w
0L
0R
0U
0]
0_
0a
1$
1\
b1101001 v
b1101 &
b1101 @
b1101 T
b1101 t
1V
b111101010001 (
b111101010001 F
b111101010001 M
b111101010001 h
b1010001 #
b1010001 7
b1010001 P
b1010001 Q
b1010001 g
b10 *
b10 H
b10 N
b10 O
1,
#30
0,
#35
1A
0=
b1000000001000 w
1L
1R
1m
1o
1q
b1111 +
b1111 I
b1111 k
1s
b1101000 v
0$
1,
#36
b1100111 2
#40
0,
#45
0!"
0'"
b110 E
b110 z
b110 }
b110 )"
0l
0r
b110 |
b110 !
b110 3
b110 K
b110 e
b110 j
b110 x
b110 *"
b110 ,"
0A
1?
1>
b10 B
b10 u
b10 y
0;
1:
b11010000100 w
0L
0R
0[
0c
1$
0b
0`
b1 %
b1 8
b1 S
b1 f
b1 +"
0^
b101001 v
b101 &
b101 @
b101 T
b101 t
0V
b101000000 (
b101000000 F
b101000000 M
b101000000 h
b1000000 #
b1000000 7
b1000000 P
b1000000 Q
b1000000 g
b11 *
b11 H
b11 N
b11 O
1,
#50
0,
#55
b110 !
b110 3
b110 K
b110 e
b110 j
b110 x
b110 *"
b110 ,"
1A
0?
0>
b0 B
b0 u
b0 y
1;
0:
b1000000001000 w
1L
1R
0""
b110 )
b110 G
b110 {
b110 ~
0("
b101000 v
0$
1,
#56
b10001000 2
#60
0,
#65
15
0#"
0%"
b0 E
b0 z
b0 }
b0 )"
0n
0p
b0 |
b0 !
b0 3
b0 K
b0 e
b0 j
b0 x
b0 *"
b0 ,"
0A
1?
1>
b10 B
b10 u
b10 y
0;
19
b11010000010 w
0L
0R
1]
1_
1a
1c
1$
b0 %
b0 8
b0 S
b0 f
b0 +"
0d
b100001 v
b100 &
b100 @
b100 T
b100 t
0\
b1001111 (
b1001111 F
b1001111 M
b1001111 h
b1001111 #
b1001111 7
b1001111 P
b1001111 Q
b1001111 g
b100 *
b100 H
b100 N
b100 O
1,
#70
0,
#75
b0 !
b0 3
b0 K
b0 e
b0 j
b0 x
b0 *"
b0 ,"
1A
0?
0>
b0 B
b0 u
b0 y
1;
09
b1000000001000 w
1L
1R
0$"
b0 )
b0 G
b0 {
b0 ~
0&"
0$
b100010 v
1"
1,
#80
0,
#85
05
1!"
1#"
1%"
1'"
b1111 E
b1111 z
b1111 }
b1111 )"
1l
1n
1p
1r
b1111 |
b1111 !
b1111 3
b1111 K
b1111 e
b1111 j
b1111 x
b1111 *"
b1111 ,"
0A
1?
1>
b10 B
b10 u
b10 y
0;
19
b11010000010 w
0L
0R
1U
0W
1Y
0_
0c
b100011 v
1$
1d
1b
1`
b1111 %
b1111 8
b1111 S
b1111 f
b1111 +"
1^
b111110101010 (
b111110101010 F
b111110101010 M
b111110101010 h
b10101010 #
b10101010 7
b10101010 P
b10101010 Q
b10101010 g
b101 *
b101 H
b101 N
b101 O
1,
#90
0,
#95
b1111 !
b1111 3
b1111 K
b1111 e
b1111 j
b1111 x
b1111 *"
b1111 ,"
1A
0?
0>
b0 B
b0 u
b0 y
1;
09
b1000000001000 w
1L
1R
1""
1$"
1&"
b1111 )
b1111 G
b1111 {
b1111 ~
1("
0$
b100000 v
0"
1,
#100
0,
#105
0#"
0%"
b1001 E
b1001 z
b1001 }
b1001 )"
1D
0n
0r
b11001 |
b1010 !
b1010 3
b1010 K
b1010 e
b1010 j
b1010 x
b1010 *"
b1010 ,"
0A
1?
1>
b11 B
b11 u
b11 y
0;
19
b11011000010 w
0L
0R
0U
0a
1$
0d
b1010 %
b1010 8
b1010 S
b1010 f
b1010 +"
0`
1Z
0X
b1010001 v
b1010 &
b1010 @
b1010 T
b1010 t
1V
b101000101000 (
b101000101000 F
b101000101000 M
b101000101000 h
b101000 #
b101000 7
b101000 P
b101000 Q
b101000 g
b110 *
b110 H
b110 N
b110 O
1,
#110
0,
#115
0p
0D
1l
1r
b1001 !
b1001 3
b1001 K
b1001 e
b1001 j
b1001 x
b1001 *"
b1001 ,"
1A
0?
0>
b0 B
b0 u
b0 y
1;
09
b1000000001000 w
1!"
0%"
b1001 E
b1001 z
b1001 }
b1001 )"
b1001 |
1L
1R
0$"
b1001 )
b1001 G
b1001 {
b1001 ~
0&"
0$
b1010100 v
1'
1,
#116
b10101001 2
#120
0,
#125
0!"
b1 E
b1 z
b1 }
b1 )"
0r
b1 |
b1000 !
b1000 3
b1000 K
b1000 e
b1000 j
b1000 x
b1000 *"
b1000 ,"
0A
1>
b1 B
b1 u
b1 y
0;
19
b1001000010 w
0L
0R
1W
0Y
1a
1$
b1000 %
b1000 8
b1000 S
b1000 f
b1000 +"
0b
b10101 v
b10 &
b10 @
b10 T
b10 t
0V
b100001001010 (
b100001001010 F
b100001001010 M
b100001001010 h
b1001010 #
b1001010 7
b1001010 P
b1001010 Q
b1001010 g
b111 *
b111 H
b111 N
b111 O
1,
#130
0,
#135
1!"
b1001 E
b1001 z
b1001 }
b1001 )"
1l
1r
b1001 |
b1001 !
b1001 3
b1001 K
b1001 e
b1001 j
b1001 x
b1001 *"
b1001 ,"
1A
0>
b0 B
b0 u
b0 y
1;
09
b1000000001000 w
1L
1R
0$
b10000 v
0'
1,
#136
b11001010 2
#140
0,
#145
1%"
0'"
b1010 E
b1010 z
b1010 }
b1010 )"
1p
0r
b1010 |
b1010 !
b1010 3
b1010 K
b1010 e
b1010 j
b1010 x
b1010 *"
b1010 ,"
0A
1?
1>
b10 B
b10 u
b10 y
0;
19
b11010000010 w
0L
0R
0W
1Y
1_
0a
1$
b1010 %
b1010 8
b1010 S
b1010 f
b1010 +"
1b
0Z
b100001 v
b100 &
b100 @
b100 T
b100 t
1X
b101000101100 (
b101000101100 F
b101000101100 M
b101000101100 h
b101100 #
b101100 7
b101100 P
b101100 Q
b101100 g
b1000 *
b1000 H
b1000 N
b1000 O
1,
#150
0,
#155
b1010 !
b1010 3
b1010 K
b1010 e
b1010 j
b1010 x
b1010 *"
b1010 ,"
1A
0?
0>
b0 B
b0 u
b0 y
1;
09
b1000000001000 w
1L
1R
1&"
b1010 )
b1010 G
b1010 {
b1010 ~
0("
b100000 v
0$
1,
#160
0,
#165
1#"
b1110 E
b1110 z
b1110 }
b1110 )"
1D
1n
0p
b11110 |
b1100 !
b1100 3
b1100 K
b1100 e
b1100 j
b1100 x
b1100 *"
b1100 ,"
0A
1>
b1 B
b1 u
b1 y
0;
19
b1001000010 w
0L
0R
1U
0]
0_
1c
1$
0b
b1100 %
b1100 8
b1100 S
b1100 f
b1100 +"
1`
1Z
b10001 v
b10 &
b10 @
b10 T
b10 t
0X
b110010100001 (
b110010100001 F
b110010100001 M
b110010100001 h
b10100001 #
b10100001 7
b10100001 P
b10100001 Q
b10100001 g
b1001 *
b1001 H
b1001 N
b1001 O
1,
#170
0,
#175
0n
0#"
b1010 E
b1010 z
b1010 }
b1010 )"
0D
1p
b1010 |
b1010 !
b1010 3
b1010 K
b1010 e
b1010 j
b1010 x
b1010 *"
b1010 ,"
1A
0>
b0 B
b0 u
b0 y
1;
09
b1000000001000 w
1L
1R
0$
b10100 v
1'
1,
#176
b11101011 2
#180
0,
#185
1'"
b1011 E
b1011 z
b1011 }
b1011 )"
0l
0p
1r
b1011 |
b1 !
b1 3
b1 K
b1 e
b1 j
b1 x
b1 *"
b1 ,"
0A
1?
1>
b11 B
b11 u
b11 y
0;
19
b11011000010 w
0L
0R
1W
1]
1a
1$
1d
0`
b1 %
b1 8
b1 S
b1 f
b1 +"
0^
b1010101 v
b1010 &
b1010 @
b1010 T
b1010 t
1V
b111101011 (
b111101011 F
b111101011 M
b111101011 h
b11101011 #
b11101011 7
b11101011 P
b11101011 Q
b11101011 g
b1010 *
b1010 H
b1010 N
b1010 O
1,
#190
0,
#195
1p
1l
0n
1r
b1011 !
b1011 3
b1011 K
b1011 e
b1011 j
b1011 x
b1011 *"
b1011 ,"
1A
0?
0>
b0 B
b0 u
b0 y
1;
09
b1000000001000 w
0#"
1%"
1'"
b1011 E
b1011 z
b1011 }
b1011 )"
b1011 |
1L
1R
b1011 )
b1011 G
b1011 {
b1011 ~
1("
0$
b1010000 v
0'
1,
#196
b100001100 2
#200
0,
#205
0!"
1#"
0%"
0'"
b100 E
b100 z
b100 }
b100 )"
b100 |
0A
1?
1>
b100 B
b100 u
b100 y
0;
19
b11100000010 w
0L
0R
0Y
1[
0]
0a
0c
1$
1b
b1011 %
b1011 8
b1011 S
b1011 f
b1011 +"
1^
b1110001 v
b1110 &
b1110 @
b1110 T
b1110 t
1X
b101111010000 (
b101111010000 F
b101111010000 M
b101111010000 h
b11010000 #
b11010000 7
b11010000 P
b11010000 Q
b11010000 g
b1011 *
b1011 H
b1011 N
b1011 O
1,
#210
0,
#215
0l
0p
0r
1n
b100 !
b100 3
b100 K
b100 e
b100 j
b100 x
b100 *"
b100 ,"
1A
0?
0>
b0 B
b0 u
b0 y
1;
09
b1000000001000 w
0!"
0%"
0'"
b100 E
b100 z
b100 }
b100 )"
b100 |
1L
1R
0""
1$"
0&"
b100 )
b100 G
b100 {
b100 ~
0("
b1110000 v
0$
1,
#216
b101001110 2
#220
0,
#225
0A
1=
b1001 w
0L
0R
0U
1$
0d
0b
b0 %
b0 8
b0 S
b0 f
b0 +"
0^
1\
b1101001 v
b1101 &
b1101 @
b1101 T
b1101 t
0Z
b1010000 (
b1010000 F
b1010000 M
b1010000 h
b1010000 #
b1010000 7
b1010000 P
b1010000 Q
b1010000 g
b1100 *
b1100 H
b1100 N
b1100 O
1,
#230
0,
#235
1A
0=
b1000000001000 w
1L
1R
0m
0q
b100 +
b100 I
b100 k
0s
b1101000 v
0$
1,
#236
b1110 -
b1110 4
b1110 J
b101101111 2
#240
0,
#245
1!"
1%"
b1110 E
b1110 z
b1110 }
b1110 )"
1l
1p
b1110 |
b1110 !
b1110 3
b1110 K
b1110 e
b1110 j
b1110 x
b1110 *"
b1110 ,"
0A
1?
1>
b10 B
b10 u
b10 y
0;
1:
b11010000100 w
0L
0R
1Y
1$
b101001 v
b101 &
b101 @
b101 T
b101 t
0V
b1110000 (
b1110000 F
b1110000 M
b1110000 h
b1110000 #
b1110000 7
b1110000 P
b1110000 Q
b1110000 g
b1101 *
b1101 H
b1101 N
b1101 O
1,
#250
0,
#255
b1110 !
b1110 3
b1110 K
b1110 e
b1110 j
b1110 x
b1110 *"
b1110 ,"
1A
0?
0>
b0 B
b0 u
b0 y
1;
0:
b1000000001000 w
1L
1R
1""
b1110 )
b1110 G
b1110 {
b1110 ~
1&"
b101000 v
0$
1,
#256
b110010000 2
#260
0,
#265
1C
16
b1000000111000 w
0L
0R
0W
0Y
0[
1$
b111001 v
b111 &
b111 @
b111 T
b111 t
1Z
b0 (
b0 F
b0 M
b0 h
b0 #
b0 7
b0 P
b0 Q
b0 g
b1110 *
b1110 H
b1110 N
b1110 O
1,
#270
0,
#275
0C
06
b1000000001000 w
1W
1]
1_
1a
1c
1L
1R
b1001111 (
b1001111 F
b1001111 M
b1001111 h
b1001111 #
b1001111 7
b1001111 P
b1001111 Q
b1001111 g
b1111 *
b1111 H
b1111 N
b1111 O
b111000 v
0$
1,
#280
0,
#285
1'"
b1111 E
b1111 z
b1111 }
b1111 )"
1r
b1111 |
b1111 !
b1111 3
b1111 K
b1111 e
b1111 j
b1111 x
b1111 *"
b1111 ,"
0A
1?
1>
b10 B
b10 u
b10 y
0;
19
b11010000010 w
0L
0R
1Y
1[
0]
0_
0a
1$
1d
1b
1`
b1111 %
b1111 8
b1111 S
b1111 f
b1111 +"
1^
0\
b100001 v
b100 &
b100 @
b100 T
b100 t
0Z
b111101110001 (
b111101110001 F
b111101110001 M
b111101110001 h
b1110001 #
b1110001 7
b1110001 P
b1110001 Q
b1110001 g
b10000 *
b10000 H
b10000 N
b10000 O
1,
#290
0,
#295
b1111 !
b1111 3
b1111 K
b1111 e
b1111 j
b1111 x
b1111 *"
b1111 ,"
1A
0?
0>
b0 B
b0 u
b0 y
1;
09
b1000000001000 w
1L
1R
b1111 )
b1111 G
b1111 {
b1111 ~
1("
b100000 v
0$
1,
#300
0,
#305
1C
16
b1000000111000 w
0L
0R
0W
0Y
1$
0b
0`
b1 %
b1 8
b1 S
b1 f
b1 +"
0^
1\
b111001 v
b111 &
b111 @
b111 T
b111 t
1Z
b100010001 (
b100010001 F
b100010001 M
b100010001 h
b10001 #
b10001 7
b10001 P
b10001 Q
b10001 g
b10001 *
b10001 H
b10001 N
b10001 O
1,
#310
0,
#315
0C
06
b1000000001000 w
1W
0[
1]
1a
0c
1L
1R
b101001010 (
b101001010 F
b101001010 M
b101001010 h
b1001010 #
b1001010 7
b1001010 P
b1001010 Q
b1001010 g
b10010 *
b10010 H
b10010 N
b10010 O
b111000 v
0$
1,
#320
0,
#325
0#"
0'"
b1010 E
b1010 z
b1010 }
b1010 )"
0n
0r
b1010 |
b1010 !
b1010 3
b1010 K
b1010 e
b1010 j
b1010 x
b1010 *"
b1010 ,"
0A
1?
1>
b10 B
b10 u
b10 y
0;
19
b11010000010 w
0L
0R
1Y
1[
0]
1$
0d
1b
b1010 %
b1010 8
b1010 S
b1010 f
b1010 +"
1^
0\
b100001 v
b100 &
b100 @
b100 T
b100 t
0Z
b101001110010 (
b101001110010 F
b101001110010 M
b101001110010 h
b1110010 #
b1110010 7
b1110010 P
b1110010 Q
b1110010 g
b10011 *
b10011 H
b10011 N
b10011 O
1,
#330
0,
#335
b1010 !
b1010 3
b1010 K
b1010 e
b1010 j
b1010 x
b1010 *"
b1010 ,"
1A
0?
0>
b0 B
b0 u
b0 y
1;
09
b1000000001000 w
1L
1R
0$"
b1010 )
b1010 G
b1010 {
b1010 ~
0("
b100000 v
0$
1,
#340
0,
#345
1C
16
b1000000111000 w
0L
0R
0W
0[
1$
b10 %
b10 8
b10 S
b10 f
b10 +"
0^
1\
b111001 v
b111 &
b111 @
b111 T
b111 t
1Z
b1000100010 (
b1000100010 F
b1000100010 M
b1000100010 h
b100010 #
b100010 7
b100010 P
b100010 Q
b100010 g
b10100 *
b10100 H
b10100 N
b10100 O
1,
#350
0,
#355
0C
06
b1000000001000 w
1W
0Y
0a
1c
1L
1R
b1001000001 (
b1001000001 F
b1001000001 M
b1001000001 h
b1000001 #
b1000001 7
b1000001 P
b1000001 Q
b1000001 g
b10101 *
b10101 H
b10101 N
b10101 O
b111000 v
0$
1,
#360
0,
#365
0!"
0%"
1'"
b1 E
b1 z
b1 }
b1 )"
0l
0p
1r
b1 |
b1 !
b1 3
b1 K
b1 e
b1 j
b1 x
b1 *"
b1 ,"
0A
1?
1>
b10 B
b10 u
b10 y
0;
19
b11010000010 w
0L
0R
1Y
1[
1a
1$
1d
b1 %
b1 8
b1 S
b1 f
b1 +"
0b
0\
b100001 v
b100 &
b100 @
b100 T
b100 t
0Z
b101110011 (
b101110011 F
b101110011 M
b101110011 h
b1110011 #
b1110011 7
b1110011 P
b1110011 Q
b1110011 g
b10110 *
b10110 H
b10110 N
b10110 O
1,
#370
0,
#375
b1 !
b1 3
b1 K
b1 e
b1 j
b1 x
b1 *"
b1 ,"
1A
0?
0>
b0 B
b0 u
b0 y
1;
09
b1000000001000 w
1L
1R
0""
0&"
b1 )
b1 G
b1 {
b1 ~
1("
b100000 v
0$
1,
#380
0,
#385
1C
16
b1000000111000 w
0L
0R
0W
1$
b11 %
b11 8
b11 S
b11 f
b11 +"
1b
1\
b111001 v
b111 &
b111 @
b111 T
b111 t
1Z
b1100110011 (
b1100110011 F
b1100110011 M
b1100110011 h
b110011 #
b110011 7
b110011 P
b110011 Q
b110011 g
b10111 *
b10111 H
b10111 N
b10111 O
1,
#390
0,
#395
0C
06
b1000000001000 w
1W
0[
0a
0c
1L
1R
b1101100000 (
b1101100000 F
b1101100000 M
b1101100000 h
b1100000 #
b1100000 7
b1100000 P
b1100000 Q
b1100000 g
b11000 *
b11000 H
b11000 N
b11000 O
b111000 v
0$
1,
#400
0,
#405
05
1!"
1#"
1%"
0'"
b1110 E
b1110 z
b1110 }
b1110 )"
1l
1n
1p
0r
b1110 |
b1110 i
b1110 !
b1110 3
b1110 K
b1110 e
b1110 j
b1110 x
b1110 *"
b1110 ,"
1?
1>
b10 B
b10 u
b10 y
1C
0;
b1011010100000 w
0L
0R
0W
0Y
1$
0d
b0 %
b0 8
b0 S
b0 f
b0 +"
0b
b110001 v
b110 &
b110 @
b110 T
b110 t
0\
b0 (
b0 F
b0 M
b0 h
b0 #
b0 7
b0 P
b0 Q
b0 g
b11001 *
b11001 H
b11001 N
b11001 O
1,
#410
0,
#415
0?
0>
b0 B
b0 u
b0 y
0C
1;
b1000000001000 w
05
1!"
1#"
1%"
0'"
b1110 E
b1110 z
b1110 }
b1110 )"
1l
1n
1p
0r
b1110 |
b1110 !
b1110 3
b1110 K
b1110 e
b1110 j
b1110 x
b1110 *"
b1110 ,"
1W
1Y
1c
bx i
1L
1R
b1100001 (
b1100001 F
b1100001 M
b1100001 h
b1100001 #
b1100001 7
b1100001 P
b1100001 Q
b1100001 g
b11010 *
b11010 H
b11010 N
b11010 O
1""
1$"
1&"
b1110 )
b1110 G
b1110 {
b1110 ~
0("
b110000 v
0$
1,
#420
0,
#425
1!"
1#"
1%"
1'"
b1111 E
b1111 z
b1111 }
b1111 )"
1l
1n
1p
1r
b1111 |
b1111 i
b1111 !
b1111 3
b1111 K
b1111 e
b1111 j
b1111 x
b1111 *"
b1111 ,"
1?
1>
b10 B
b10 u
b10 y
1C
0;
b1011010100000 w
0L
0R
0W
0Y
1[
b110001 v
1$
b1 %
b1 8
b1 S
b1 f
b1 +"
1d
b100010001 (
b100010001 F
b100010001 M
b100010001 h
b10001 #
b10001 7
b10001 P
b10001 Q
b10001 g
b11011 *
b11011 H
b11011 N
b11011 O
1,
#430
0,
#435
0?
0>
b0 B
b0 u
b0 y
0C
1;
b1000000001000 w
05
1!"
1#"
1%"
1'"
b1111 E
b1111 z
b1111 }
b1111 )"
1l
1n
1p
1r
b1111 |
b1111 !
b1111 3
b1111 K
b1111 e
b1111 j
b1111 x
b1111 *"
b1111 ,"
1W
1Y
0[
1a
0c
bx i
1L
1R
b101100010 (
b101100010 F
b101100010 M
b101100010 h
b1100010 #
b1100010 7
b1100010 P
b1100010 Q
b1100010 g
b11100 *
b11100 H
b11100 N
b11100 O
b1111 )
b1111 G
b1111 {
b1111 ~
1("
b110000 v
0$
1,
#440
0,
#445
1!"
0#"
1%"
0'"
b1010 E
b1010 z
b1010 }
b1010 )"
1l
0n
1p
0r
b1010 |
b1010 i
b1010 !
b1010 3
b1010 K
b1010 e
b1010 j
b1010 x
b1010 *"
b1010 ,"
1?
1>
b10 B
b10 u
b10 y
1C
0;
b1011010100000 w
0L
0R
0W
b110001 v
1$
0d
b10 %
b10 8
b10 S
b10 f
b10 +"
1b
b1000100010 (
b1000100010 F
b1000100010 M
b1000100010 h
b100010 #
b100010 7
b100010 P
b100010 Q
b100010 g
b11101 *
b11101 H
b11101 N
b11101 O
1,
#450
0,
